================ API REQUEST ================
URL:https://api.artic.edu/api/v1/artworks?page=1&limit=1
================ API RESPONSE ================
Status: 200
Time: 404 ms
=============================================
Body:
{
  "pagination": {
    "total": 130025,
    "limit": 1,
    "offset": 0,
    "total_pages": 130025,
    "current_page": 1,
    "next_url": "https://api.artic.edu/api/v1/artworks?page=2&limit=1"
  },
  "data": [
    {
      "id": 276013,
      "api_model": "artworks",
      "api_link": "https://api.artic.edu/api/v1/artworks/276013",
      "is_boosted": false,
      "title": "Untitled (13-02)",
      "alt_titles": null,
      "thumbnail": {
        "lqip": "data:image/gif;base64,R0lGODlhBAAFAPQAANNUMvB7PbVXUb5XULdkX7lgXMZiVtJpVNByX+V7Us1zZsJxa+uBT/SRWN+Rd+yRYfCba/OuhPG5ldy8sQAAAAAAAAAAAAAAAAAAAAAAAAAAAAAAAAAAAAAAAAAAAAAAACH5BAAAAAAALAAAAAAEAAUAAAURoAQ10ZMwgQMciGIMxFIIUwgAOw==",
        "width": 5655,
        "height": 6304,
        "alt_text": "A work made of acrylic on linen."
      },
      "main_reference_number": "2025.80",
      "has_not_been_viewed_much": true,
      "boost_rank": null,
      "date_start": 2013,
      "date_end": 2013,
      "date_display": "2013",
      "date_qualifier_title": "",
      "date_qualifier_id": null,
      "artist_display": "Rebecca Shore\nAmerican, born 1956",
      "place_of_origin": "United States",
      "description": null,
      "short_description": null,
      "dimensions": "45.8 × 40.7 cm (18 × 16 in.)",
      "dimensions_detail": [
        {
          "depth": null,
          "width": 40,
          "height": 45,
          "diameter": null,
          "clarification": null
        }
      ],
      "medium_display": "Acrylic on linen",
      "inscriptions": null,
      "credit_line": "Purchased with funds provided by Mark and Judy Bednar",
      "catalogue_display": null,
      "publication_history": "Emily Letourneau ed., Rebecca Shore: Barely Committed to Three Dimensions, exh. cat. (Chicago: Corbett vs. Dempsey, 2014), 29, (color ill.), as 02.",
      "exhibition_history": "None to date.",
      "provenance_text": "The artist; sold through Corbett vs. Dempsey, Chicago, to the Art Institute of Chicago, Apr. 8, 2025.",
      "edition": null,
      "publishing_verification_level": "Web Cataloged",
      "internal_department_id": 246,
      "fiscal_year": 2025,
      "fiscal_year_deaccession": null,
      "is_public_domain": false,
      "is_zoomable": true,
      "max_zoom_window_size": 1280,
      "copyright_notice": "© 2013 Rebecca Shore",
      "has_multimedia_resources": false,
      "has_educational_resources": false,
      "has_advanced_imaging": false,
      "colorfulness": 0,
      "color": {
        "h": 24,
        "l": 48,
        "s": 98,
        "percentage": 0.003767273918682986,
        "population": 1343
      },
      "latitude": null,
      "longitude": null,
      "latlon": null,
      "is_on_view": false,
      "on_loan_display": null,
      "gallery_title": null,
      "gallery_id": null,
      "nomisma_id": null,
      "artwork_type_title": "Painting",
      "artwork_type_id": 1,
      "department_title": "Contemporary Art",
      "department_id": "PC-8",
      "artist_id": 114279,
      "artist_title": "Rebecca Shore",
      "alt_artist_ids": [],
      "artist_ids": [
        114279
      ],
      "artist_titles": [
        "Rebecca Shore"
      ],
      "category_ids": [
        "PC-8"
      ],
      "category_titles": [
        "Contemporary Art"
      ],
      "term_titles": [
        "painting"
      ],
      "style_id": null,
      "style_title": null,
      "alt_style_ids": [],
      "style_ids": [],
      "style_titles": [],
      "classification_id": "TM-9",
      "classification_title": "painting",
      "alt_classification_ids": [],
      "classification_ids": [
        "TM-9"
      ],
      "classification_titles": [
        "painting"
      ],
      "subject_id": null,
      "alt_subject_ids": [],
      "subject_ids": [],
      "subject_titles": [],
      "material_id": null,
      "alt_material_ids": [],
      "material_ids": [],
      "material_titles": [],
      "technique_id": null,
      "alt_technique_ids": [],
      "technique_ids": [],
      "technique_titles": [],
      "theme_titles": [],
      "image_id": "ac818f88-96bd-f480-1561-d44ffee30497",
      "alt_image_ids": [],
      "document_ids": [],
      "sound_ids": [],
      "video_ids": [],
      "text_ids": [],
      "section_ids": [],
      "section_titles": [],
      "site_ids": [],
      "suggest_autocomplete_all": [
        {
          "input": [
            "2025.80"
          ],
          "contexts": {
            "groupings": [
              "accession"
            ]
          }
        },
        {
          "input": [
            "Untitled (13-02)"
          ],
          "weight": 1,
          "contexts": {
            "groupings": [
              "title"
            ]
          }
        }
      ],
      "source_updated_at": "2025-11-21T16:58:08-06:00",
      "updated_at": "2025-11-21T17:06:10-06:00",
      "timestamp": "2025-11-21T20:04:43-06:00"
    }
  ],
  "info": {
    "license_text": "The `description` field in this response is licensed under a Creative Commons Attribution 4.0 Generic License (CC-By) and the Terms and Conditions of artic.edu. All other data in this response is licensed under a Creative Commons Zero (CC0) 1.0 designation and the Terms and Conditions of artic.edu.",
    "license_links": [
      "https://creativecommons.org/publicdomain/zero/1.0/",
      "https://www.artic.edu/terms"
    ],
    "version": "1.13"
  },
  "config": {
    "iiif_url": "https://www.artic.edu/iiif/2",
    "website_url": "http://www.artic.edu"
  }
}
